
real	0m37,382s
user	2m10,862s
sys	0m3,019s
n = 1000
pipeline.sh, linha 12:  3724 Falha de segmentação  (imagem do núcleo gravada) ./bin/multi $NUMBER

real	0m0,034s
user	0m0,002s
sys	0m0,000s
n = 
pipeline.sh, linha 12:  3753 Falha de segmentação  (imagem do núcleo gravada) ./bin/multi $NUMBER

real	0m0,021s
user	0m0,001s
sys	0m0,000s
n = 
pipeline.sh, linha 12:  3780 Falha de segmentação  (imagem do núcleo gravada) ./bin/multi $NUMBER

real	0m0,022s
user	0m0,001s
sys	0m0,000s
n = 
pipeline.sh, linha 12:  3807 Falha de segmentação  (imagem do núcleo gravada) ./bin/multi $NUMBER

real	0m0,020s
user	0m0,001s
sys	0m0,000s
n = 
pipeline.sh, linha 12:  3893 Falha de segmentação  (imagem do núcleo gravada) ./bin/multi $NUMBER

real	0m0,020s
user	0m0,001s
sys	0m0,000s
n = 
pipeline.sh, linha 12:  4447 Falha de segmentação  (imagem do núcleo gravada) ./bin/multi $NUMBER

real	0m0,020s
user	0m0,002s
sys	0m0,000s
n = 

real	0m0,116s
user	0m0,399s
sys	0m0,008s
n = 100

real	0m35,589s
user	2m12,620s
sys	0m0,425s
n = 1000

real	0m35,608s
user	2m12,434s
sys	0m0,421s
n = 1000
